G28
G1 Z0.0
G4 X2
M280 P0 S15
M05
G4 X1
G0 X1.5 Y135.0
G4 X1
M280 P0 S7
G4 X1
G0 X1.5 Y134.7
G0 X1.6 Y133.9
G0 X1.8 Y133.2
G0 X2.1 Y132.5
G0 X2.4 Y131.8
G0 X2.9 Y131.1
G0 X3.4 Y130.6
G0 X4.0 Y130.1
G0 X4.7 Y129.7
G0 X5.5 Y129.4
G0 X6.2 Y129.1
G0 X7.0 Y129.0
G0 X7.8 Y129.0
G0 X8.5 Y129.1
G0 X9.3 Y129.3
G0 X10.0 Y129.6
G0 X10.7 Y129.9
G0 X11.4 Y130.4
G0 X11.9 Y131.0
G0 X12.4 Y131.6
G0 X12.8 Y132.2
G0 X13.1 Y132.9
G0 X13.4 Y133.7
G0 X13.5 Y134.5
G0 X13.5 Y135.3
G0 X13.4 Y136.1
G0 X13.2 Y136.8
G0 X12.9 Y137.5
G0 X12.6 Y138.2
G0 X12.1 Y138.9
G0 X11.6 Y139.4
G0 X11.0 Y139.9
G0 X10.3 Y140.3
G0 X9.5 Y140.6
G0 X8.8 Y140.9
G0 X8.0 Y141.0
G0 X7.2 Y141.0
G0 X6.5 Y140.9
G0 X5.7 Y140.7
G0 X5.0 Y140.4
G0 X4.3 Y140.1
G0 X3.6 Y139.6
G0 X3.1 Y139.0
G0 X2.6 Y138.4
G0 X2.2 Y137.8
G0 X1.9 Y137.1
G0 X1.6 Y136.3
G0 X1.5 Y135.5
G0 X1.5 Y135.0
G4 X2
M280 P0 S15
M05
G4 X1
G0 X1.5 Y135.0
G4 X1
M280 P0 S7
G4 X1
M05
G4 P0.2
G0 X16.5 Y135.0
M280 P0 S7
G0 X16.5 Y134.7
G0 X16.6 Y133.9
G0 X16.8 Y133.2
G0 X17.1 Y132.5
G0 X17.4 Y131.8
G0 X17.9 Y131.1
G0 X18.4 Y130.6
G0 X19.0 Y130.1
G0 X19.7 Y129.7
G0 X20.5 Y129.4
G0 X21.2 Y129.1
G0 X22.0 Y129.0
G0 X22.8 Y129.0
G0 X23.5 Y129.1
G0 X24.3 Y129.3
G0 X25.0 Y129.6
G0 X25.7 Y129.9
G0 X26.4 Y130.4
G0 X26.9 Y131.0
G0 X27.4 Y131.6
G0 X27.8 Y132.2
G0 X28.1 Y132.9
G0 X28.4 Y133.7
G0 X28.5 Y134.5
G0 X28.5 Y135.3
G0 X28.4 Y136.1
G0 X28.2 Y136.8
G0 X27.9 Y137.5
G0 X27.6 Y138.2
G0 X27.1 Y138.9
G0 X26.6 Y139.4
G0 X26.0 Y139.9
G0 X25.3 Y140.3
G0 X24.5 Y140.6
G0 X23.8 Y140.9
G0 X23.0 Y141.0
G0 X22.2 Y141.0
G0 X21.5 Y140.9
G0 X20.7 Y140.7
G0 X20.0 Y140.4
G0 X19.3 Y140.1
G0 X18.6 Y139.6
G0 X18.1 Y139.0
G0 X17.6 Y138.4
G0 X17.2 Y137.8
G0 X16.9 Y137.1
G0 X16.6 Y136.3
G0 X16.5 Y135.5
G0 X16.5 Y135.0
G4 P0.2
M05
G4 X2
M280 P0 S15
M05
G4 X1
G28
