G28
G1 Z0.0
M280 P0 S30
G4 X1
G0 X21.3 Y7.8
M280 PO S7
G0 X21.3 Y7.8
G0 X36.1 Y7.8
G0 X36.1 Y5.8
G0 X29.9 Y5.8
G0 X27.5 Y5.8
G0 X21.3 Y5.8
G0 X21.3 Y7.8
G0 X21.3 Y7.8
G4 X1
M280 PO S30
G4 X1
G0 X46.8 Y0.0
M280 PO S7
G0 X46.5 Y0.6
G0 X46.2 Y1.1
G0 X45.7 Y1.5
G0 X45.2 Y1.7
G0 X44.6 Y1.8
G0 X43.8 Y1.9
G0 X43.0 Y1.7
G0 X42.3 Y1.5
G0 X41.7 Y1.1
G0 X41.2 Y0.6
G0 X38.2 Y8.5
G0 X40.4 Y8.5
G0 X40.6 Y1.8
G0 X41.5 Y2.7
G0 X42.5 Y3.3
G0 X43.7 Y3.7
G0 X45.0 Y3.7
G0 X46.0 Y3.6
G0 X46.9 Y3.3
G0 X47.6 Y2.8
G0 X48.2 Y2.1
G0 X48.7 Y1.3
G0 X49.0 Y0.3
G4 X1
M280 PO S30
G4 X1
G0 X53.1 Y0.0
M280 PO S7
G0 X53.8 Y1.2
G0 X54.6 Y2.2
G0 X55.6 Y2.9
G0 X56.7 Y3.4
G0 X58.0 Y3.7
G0 X59.4 Y3.7
G0 X60.6 Y3.6
G0 X61.7 Y3.2
G0 X62.6 Y2.6
G0 X63.4 Y1.7
G0 X64.0 Y0.8
G0 X61.9 Y0.5
G0 X61.4 Y1.0
G0 X60.9 Y1.4
G0 X60.2 Y1.7
G0 X59.5 Y1.9
G0 X58.7 Y1.9
G0 X57.9 Y1.8
G0 X57.2 Y1.6
G0 X56.5 Y1.2
G0 X55.9 Y0.7
G0 X55.5 Y0.1
G4 X1
M280 PO S30
G4 X1
G0 X66.7 Y3.4
M280 PO S7
G0 X69.0 Y3.4
G0 X77.2 Y3.4
G0 X79.5 Y3.4
G4 X1
M280 PO S30
G4 X1
G0 X98.5 Y3.0
M280 PO S7
G0 X98.5 Y3.0
G0 X98.2 Y1.1
G0 X97.2 Y1.5
G0 X96.2 Y1.8
G0 X95.2 Y1.9
G0 X94.0 Y1.9
G0 X92.9 Y1.8
G0 X92.4 Y1.6
G0 X92.0 Y1.4
G0 X91.7 Y1.1
G0 X91.5 Y0.7
G0 X91.3 Y0.3
G0 X89.2 Y0.2
G0 X89.4 Y1.0
G0 X89.7 Y1.7
G0 X90.1 Y2.4
G0 X90.8 Y2.9
G0 X91.5 Y3.3
G0 X92.5 Y3.6
G0 X93.5 Y3.7
G0 X94.7 Y3.7
G0 X95.8 Y3.7
G0 X96.9 Y3.5
G0 X97.9 Y3.2
G0 X98.5 Y3.0
G0 X98.5 Y3.0
G4 X1
M280 PO S30
G4 X1
G0 X110.4 Y0.3
M280 PO S7
G0 X110.1 Y0.8
G0 X109.6 Y1.2
G0 X109.0 Y1.5
G0 X108.3 Y1.8
G0 X107.6 Y1.9
G0 X106.6 Y1.9
G0 X105.5 Y1.8
G0 X104.5 Y1.5
G0 X103.4 Y1.2
G0 X102.8 Y0.8
G0 X103.2 Y3.0
G0 X104.3 Y3.3
G0 X105.4 Y3.6
G0 X106.5 Y3.7
G0 X107.7 Y3.7
G0 X109.0 Y3.6
G0 X110.1 Y3.2
G0 X111.0 Y2.7
G0 X111.7 Y2.0
G0 X112.3 Y1.1
G0 X112.7 Y0.0
G4 X1
M280 PO S30
G4 X1
G0 X117.3 Y3.4
M280 PO S7
G0 X117.3 Y3.4
G0 X119.5 Y3.4
G0 X117.3 Y3.4
G0 X117.3 Y3.4
G0 X117.3 Y8.5
G0 X119.5 Y8.5
G0 X119.5 Y5.8
G0 X117.3 Y5.8
G0 X117.3 Y8.5
G0 X117.3 Y8.5
G4 X1
M280 PO S30
G4 X1
G0 X132.6 Y1.4
M280 PO S7
G0 X132.6 Y1.4
G0 X132.6 Y8.5
G0 X134.8 Y8.5
G0 X123.6 Y0.1
G0 X124.1 Y1.2
G0 X124.8 Y2.2
G0 X125.6 Y2.9
G0 X126.6 Y3.4
G0 X127.7 Y3.7
G0 X128.9 Y3.7
G0 X130.2 Y3.5
G0 X131.3 Y3.0
G0 X132.2 Y2.2
G0 X132.6 Y1.4
G0 X132.6 Y1.4
G0 X132.0 Y0.1
G0 X131.5 Y0.8
G0 X130.9 Y1.3
G0 X130.3 Y1.7
G0 X129.5 Y1.9
G0 X128.7 Y1.9
G0 X127.9 Y1.8
G0 X127.2 Y1.5
G0 X126.6 Y1.0
G0 X126.1 Y0.3
G4 X1
M280 PO S30
G4 X1
G0 X149.0 Y7.1
M280 PO S7
G0 X149.0 Y7.1
G0 X149.0 Y3.4
G0 X149.0 Y1.7
G0 X146.8 Y1.7
G0 X145.3 Y1.7
G0 X145.3 Y3.4
G0 X146.8 Y3.4
G0 X146.8 Y7.1
G0 X149.0 Y7.1
G0 X149.0 Y7.1
G4 X1
M280 PO S30
G4 X1
G4 X1
M280 PO S30
G4 X1
G4 X1
M280 PO S30
G4 X1
G4 X1
M280 PO S30
G4 X1
G4 X1
M280 PO S30
G4 X1
G4 X1
M280 PO S30
G4 X1
G4 X1
M280 PO S30
G4 X1
G4 X1
M280 PO S30
G4 X1
G4 X1
M280 PO S30
G4 X1
G4 X1
M280 PO S30
G4 X1
G4 X1
M280 PO S30
G4 X1
G4 X1
M280 PO S30
G4 X1
G4 X1
M280 PO S30
G4 X1
G4 X1
M280 PO S30
G4 X1
G4 X1
M280 PO S30
G4 X1
G4 X1
M280 PO S30
G4 X1
G4 X1
M280 PO S30
G4 X1
G4 X1
M280 PO S30
G4 X1
G4 X1
M280 PO S30
G4 X1
G4 X1
M280 PO S30
G4 X1
G4 X1
M280 PO S30
G4 X1
G4 X1
M280 PO S30
G4 X1
G4 X1
M280 PO S30
G4 X1
G4 X1
M280 PO S30
G4 X1
G4 X1
M280 PO S30
G4 X1
G4 X1
M280 PO S30
G28
