G28
G1 Z0.0
M280 P0 S30
G4 X1
G0 X130.4 Y150.0
M280 PO S7
G0 X130.4 Y150.0
G0 X104.4 Y150.0
G0 X104.0 Y149.8
G0 X103.6 Y149.5
G0 X103.4 Y149.1
G0 X103.3 Y148.7
G0 X103.3 Y144.1
G0 X39.3 Y144.4
G0 X38.6 Y145.2
G0 X37.8 Y146.0
G0 X36.9 Y146.6
G0 X36.0 Y147.2
G0 X35.0 Y147.6
G0 X33.9 Y148.0
G0 X32.7 Y148.1
G0 X31.6 Y148.2
G0 X30.7 Y148.1
G0 X29.5 Y147.8
G0 X27.9 Y147.2
G0 X26.4 Y146.3
G0 X25.1 Y145.1
G0 X24.1 Y143.7
G0 X23.3 Y142.1
G0 X23.0 Y140.6
G0 X22.9 Y139.7
G0 X22.9 Y138.6
G0 X23.0 Y137.4
G0 X23.3 Y136.1
G0 X23.8 Y135.0
G0 X24.5 Y133.9
G0 X25.2 Y133.0
G0 X26.1 Y132.1
G0 X27.1 Y131.4
G0 X27.8 Y131.0
G0 X52.2 Y81.1
G0 X51.9 Y80.2
G0 X51.6 Y79.2
G0 X51.5 Y78.2
G0 X51.5 Y77.1
G0 X51.6 Y76.0
G0 X51.8 Y75.0
G0 X52.2 Y74.0
G0 X52.5 Y73.3
G0 X29.1 Y27.1
G0 X27.5 Y27.2
G0 X25.7 Y27.0
G0 X23.9 Y26.7
G0 X22.2 Y26.2
G0 X20.6 Y25.5
G0 X19.1 Y24.7
G0 X17.7 Y23.8
G0 X16.3 Y22.7
G0 X15.1 Y21.5
G0 X14.0 Y20.2
G0 X13.0 Y18.8
G0 X12.1 Y17.3
G0 X11.4 Y15.7
G0 X10.9 Y14.1
G0 X10.5 Y12.3
G0 X10.3 Y10.5
G0 X10.3 Y9.1
G0 X10.4 Y8.7
G0 X10.7 Y8.3
G0 X11.2 Y8.1
G0 X11.5 Y8.1
G0 X44.7 Y8.0
G0 X44.8 Y8.1
G0 X45.3 Y8.2
G0 X45.7 Y8.5
G0 X45.9 Y9.0
G0 X45.9 Y9.4
G0 X45.9 Y10.2
G0 X45.7 Y12.3
G0 X45.2 Y14.3
G0 X44.6 Y16.2
G0 X43.7 Y18.0
G0 X42.6 Y19.7
G0 X41.4 Y21.2
G0 X40.0 Y22.6
G0 X38.9 Y23.5
G0 X61.8 Y68.5
G0 X63.5 Y68.9
G0 X65.0 Y69.6
G0 X66.4 Y70.6
G0 X67.5 Y71.7
G0 X68.5 Y73.1
G0 X69.2 Y74.7
G0 X69.6 Y76.3
G0 X69.6 Y77.8
G0 X69.5 Y78.7
G0 X69.3 Y79.9
G0 X68.7 Y81.5
G0 X67.8 Y83.0
G0 X66.7 Y84.2
G0 X65.3 Y85.3
G0 X63.8 Y86.0
G0 X62.1 Y86.5
G0 X60.9 Y86.6
G0 X38.4 Y132.7
G0 X39.1 Y133.5
G0 X39.5 Y134.1
G0 X103.3 Y134.1
G0 X103.3 Y117.9
G0 X103.5 Y117.5
G0 X103.8 Y117.1
G0 X104.3 Y116.9
G0 X104.6 Y116.8
G0 X108.0 Y116.8
G0 X108.0 Y105.5
G0 X108.2 Y105.1
G0 X108.5 Y104.7
G0 X109.0 Y104.5
G0 X109.3 Y104.5
G0 X112.0 Y104.5
G0 X112.0 Y94.6
G0 X112.2 Y94.2
G0 X112.3 Y94.0
G0 X116.2 Y89.2
G0 X116.2 Y45.9
G0 X112.5 Y49.6
G0 X112.1 Y49.9
G0 X111.6 Y49.9
G0 X111.1 Y49.7
G0 X110.7 Y49.4
G0 X110.5 Y48.9
G0 X110.5 Y48.5
G0 X110.6 Y48.0
G0 X110.8 Y47.7
G0 X114.5 Y44.1
G0 X109.2 Y44.1
G0 X108.7 Y43.9
G0 X108.3 Y43.6
G0 X108.1 Y43.2
G0 X108.1 Y42.6
G0 X108.2 Y42.2
G0 X108.5 Y41.8
G0 X109.0 Y41.6
G0 X109.3 Y41.5
G0 X114.5 Y41.5
G0 X110.7 Y37.8
G0 X110.5 Y37.3
G0 X110.5 Y36.9
G0 X110.6 Y36.4
G0 X111.0 Y36.0
G0 X111.4 Y35.8
G0 X111.9 Y35.7
G0 X112.4 Y35.9
G0 X112.6 Y36.1
G0 X116.2 Y39.7
G0 X116.2 Y34.5
G0 X116.4 Y34.1
G0 X116.7 Y33.7
G0 X117.2 Y33.5
G0 X117.7 Y33.4
G0 X118.2 Y33.6
G0 X118.5 Y33.9
G0 X118.8 Y34.4
G0 X118.8 Y34.7
G0 X118.8 Y39.8
G0 X122.6 Y36.0
G0 X123.0 Y35.8
G0 X123.5 Y35.7
G0 X124.0 Y35.9
G0 X124.4 Y36.2
G0 X124.6 Y36.7
G0 X124.6 Y37.2
G0 X124.5 Y37.7
G0 X124.2 Y37.9
G0 X120.6 Y41.5
G0 X125.9 Y41.5
G0 X126.4 Y41.7
G0 X126.8 Y42.0
G0 X127.0 Y42.5
G0 X127.0 Y43.0
G0 X126.8 Y43.5
G0 X126.5 Y43.8
G0 X126.1 Y44.1
G0 X125.7 Y44.1
G0 X120.6 Y44.1
G0 X124.4 Y47.8
G0 X124.6 Y48.3
G0 X124.6 Y48.8
G0 X124.5 Y49.2
G0 X124.1 Y49.6
G0 X123.7 Y49.9
G0 X123.2 Y49.9
G0 X122.7 Y49.7
G0 X122.4 Y49.5
G0 X118.8 Y45.9
G0 X118.8 Y89.2
G0 X122.8 Y94.1
G0 X123.0 Y94.5
G0 X123.0 Y94.8
G0 X123.0 Y104.4
G0 X125.9 Y104.4
G0 X126.4 Y104.6
G0 X126.7 Y104.9
G0 X127.0 Y105.4
G0 X127.0 Y105.7
G0 X127.0 Y116.8
G0 X130.6 Y116.8
G0 X131.1 Y117.0
G0 X131.4 Y117.3
G0 X131.7 Y117.8
G0 X131.7 Y118.1
G0 X131.7 Y148.9
G0 X131.5 Y149.4
G0 X131.2 Y149.7
G0 X130.8 Y150.0
G0 X130.4 Y150.0
G0 X130.4 Y150.0
G0 X129.1 Y147.4
G0 X129.1 Y135.4
G0 X105.9 Y135.5
G0 X105.9 Y135.6
G0 X105.9 Y142.6
G0 X105.9 Y142.9
G0 X105.9 Y143.0
G0 X105.9 Y147.4
G0 X129.1 Y147.4
G0 X129.1 Y147.4
G0 X40.5 Y18.2
G0 X24.7 Y18.2
G0 X24.2 Y18.1
G0 X23.9 Y17.7
G0 X23.7 Y17.3
G0 X23.6 Y16.8
G0 X23.8 Y16.3
G0 X24.1 Y15.9
G0 X24.6 Y15.7
G0 X24.9 Y15.7
G0 X41.7 Y15.7
G0 X42.1 Y15.3
G0 X42.6 Y14.1
G0 X43.0 Y12.8
G0 X43.2 Y11.5
G0 X43.3 Y10.6
G0 X12.9 Y11.1
G0 X13.1 Y12.5
G0 X13.5 Y13.9
G0 X14.0 Y15.2
G0 X14.6 Y16.5
G0 X15.3 Y17.7
G0 X16.1 Y18.8
G0 X17.1 Y19.9
G0 X18.1 Y20.9
G0 X19.2 Y21.7
G0 X20.3 Y22.5
G0 X21.6 Y23.2
G0 X22.9 Y23.7
G0 X24.2 Y24.1
G0 X25.6 Y24.4
G0 X27.1 Y24.6
G0 X28.8 Y24.6
G0 X30.2 Y24.5
G0 X30.8 Y24.4
G0 X32.3 Y24.0
G0 X33.8 Y23.5
G0 X35.2 Y22.9
G0 X36.5 Y22.1
G0 X37.7 Y21.2
G0 X38.9 Y20.2
G0 X39.9 Y19.0
G0 X40.5 Y18.2
G0 X40.5 Y18.2
G0 X32.3 Y26.7
G0 X54.5 Y70.8
G0 X55.4 Y70.0
G0 X56.5 Y69.4
G0 X57.6 Y68.9
G0 X58.5 Y68.7
G0 X36.1 Y25.3
G0 X33.8 Y26.2
G0 X32.3 Y26.7
G0 X32.3 Y26.7
G0 X67.1 Y77.1
G0 X66.8 Y75.8
G0 X66.4 Y74.6
G0 X65.7 Y73.5
G0 X64.9 Y72.6
G0 X63.8 Y71.9
G0 X62.7 Y71.3
G0 X61.4 Y71.0
G0 X60.1 Y71.0
G0 X58.8 Y71.2
G0 X57.6 Y71.7
G0 X56.5 Y72.4
G0 X55.6 Y73.2
G0 X54.9 Y74.2
G0 X54.4 Y75.4
G0 X54.1 Y76.6
G0 X54.0 Y78.0
G0 X54.2 Y79.3
G0 X54.7 Y80.5
G0 X55.4 Y81.5
G0 X56.2 Y82.4
G0 X57.2 Y83.2
G0 X58.4 Y83.7
G0 X59.6 Y84.0
G0 X61.0 Y84.1
G0 X62.3 Y83.8
G0 X63.5 Y83.4
G0 X64.5 Y82.7
G0 X65.4 Y81.8
G0 X66.2 Y80.8
G0 X66.7 Y79.7
G0 X67.0 Y78.4
G0 X67.1 Y77.5
G0 X67.1 Y77.5
G0 X57.8 Y86.2
G0 X56.6 Y85.7
G0 X55.6 Y85.1
G0 X54.6 Y84.4
G0 X54.0 Y83.8
G0 X31.4 Y130.0
G0 X32.3 Y130.0
G0 X33.4 Y130.1
G0 X34.4 Y130.3
G0 X35.4 Y130.7
G0 X36.1 Y131.0
G0 X58.2 Y86.3
G0 X58.2 Y86.3
G0 X31.5 Y132.5
G0 X30.2 Y132.8
G0 X29.0 Y133.2
G0 X27.9 Y133.9
G0 X27.0 Y134.8
G0 X26.3 Y135.8
G0 X25.8 Y136.9
G0 X25.5 Y138.2
G0 X25.4 Y139.5
G0 X25.6 Y140.8
G0 X26.1 Y142.0
G0 X26.8 Y143.1
G0 X27.6 Y144.0
G0 X28.6 Y144.7
G0 X29.8 Y145.3
G0 X31.0 Y145.6
G0 X32.4 Y145.6
G0 X33.7 Y145.4
G0 X34.9 Y144.9
G0 X35.9 Y144.2
G0 X36.8 Y143.4
G0 X37.6 Y142.4
G0 X38.1 Y141.2
G0 X38.4 Y140.0
G0 X38.5 Y138.6
G0 X38.2 Y137.3
G0 X37.8 Y136.1
G0 X37.1 Y135.1
G0 X36.3 Y134.2
G0 X35.2 Y133.4
G0 X34.1 Y132.9
G0 X32.8 Y132.6
G0 X31.9 Y132.5
G0 X31.9 Y132.5
G0 X40.8 Y137.0
G0 X41.0 Y138.2
G0 X41.0 Y139.5
G0 X40.9 Y140.7
G0 X40.7 Y141.5
G0 X103.3 Y141.5
G0 X103.3 Y136.7
G0 X40.7 Y136.7
G0 X40.7 Y136.7
G0 X120.4 Y95.2
G0 X117.5 Y91.7
G0 X114.6 Y95.2
G0 X114.6 Y104.5
G0 X120.4 Y104.5
G0 X120.4 Y95.2
G0 X120.4 Y95.2
G0 X124.4 Y107.0
G0 X110.6 Y107.0
G0 X110.6 Y116.8
G0 X124.4 Y116.8
G0 X124.4 Y107.0
G0 X124.4 Y107.0
G0 X105.9 Y119.4
G0 X105.9 Y126.8
G0 X120.4 Y126.8
G0 X120.9 Y127.0
G0 X121.3 Y127.3
G0 X121.5 Y127.7
G0 X121.5 Y128.3
G0 X121.4 Y128.7
G0 X121.0 Y129.1
G0 X120.6 Y129.3
G0 X120.2 Y129.4
G0 X105.9 Y129.4
G0 X105.9 Y132.8
G0 X129.1 Y132.8
G0 X129.1 Y119.4
G0 X105.9 Y119.4
G0 X105.9 Y119.4
G4 X1
M280 PO S30
G4 X1
G0 X112.5 Y141.1
M280 PO S7
G0 X112.5 Y141.1
G0 X122.7 Y141.1
G0 X123.2 Y141.2
G0 X123.5 Y141.5
G0 X123.8 Y142.0
G0 X123.8 Y142.5
G0 X123.6 Y143.0
G0 X123.3 Y143.3
G0 X122.9 Y143.6
G0 X122.5 Y143.6
G0 X112.3 Y143.6
G0 X111.9 Y143.4
G0 X111.5 Y143.1
G0 X111.3 Y142.7
G0 X111.2 Y142.1
G0 X111.4 Y141.7
G0 X111.7 Y141.3
G0 X112.2 Y141.1
G0 X112.5 Y141.1
G0 X112.5 Y141.1
G4 X1
M280 PO S30
G28
