%!PS-Adobe-3.0 EPSF-3.0
%%Creator: cairo 1.14.0 (http://cairographics.org)
%%CreationDate: Tue Jul 25 12:20:35 2017
%%Pages: 1
%%DocumentData: Clean7Bit
%%LanguageLevel: 2
%%BoundingBox: 0 747 227 842
%%EndComments
%%BeginProlog
save
50 dict begin
/q { gsave } bind def
/Q { grestore } bind def
/cm { 6 array astore concat } bind def
/w { setlinewidth } bind def
/J { setlinecap } bind def
/j { setlinejoin } bind def
/M { setmiterlimit } bind def
/d { setdash } bind def
/m { moveto } bind def
/l { lineto } bind def
/c { curveto } bind def
/h { closepath } bind def
/re { exch dup neg 3 1 roll 5 3 roll moveto 0 rlineto
      0 exch rlineto 0 rlineto closepath } bind def
/S { stroke } bind def
/f { fill } bind def
/f* { eofill } bind def
/n { newpath } bind def
/W { clip } bind def
/W* { eoclip } bind def
/BT { } bind def
/ET { } bind def
/pdfmark where { pop globaldict /?pdfmark /exec load put }
    { globaldict begin /?pdfmark /pop load def /pdfmark
    /cleartomark load def end } ifelse
/BDC { mark 3 1 roll /BDC pdfmark } bind def
/EMC { mark /EMC pdfmark } bind def
/cairo_store_point { /cairo_point_y exch def /cairo_point_x exch def } def
/Tj { show currentpoint cairo_store_point } bind def
/TJ {
  {
    dup
    type /stringtype eq
    { show } { -0.001 mul 0 cairo_font_matrix dtransform rmoveto } ifelse
  } forall
  currentpoint cairo_store_point
} bind def
/cairo_selectfont { cairo_font_matrix aload pop pop pop 0 0 6 array astore
    cairo_font exch selectfont cairo_point_x cairo_point_y moveto } bind def
/Tf { pop /cairo_font exch def /cairo_font_matrix where
      { pop cairo_selectfont } if } bind def
/Td { matrix translate cairo_font_matrix matrix concatmatrix dup
      /cairo_font_matrix exch def dup 4 get exch 5 get cairo_store_point
      /cairo_font where { pop cairo_selectfont } if } bind def
/Tm { 2 copy 8 2 roll 6 array astore /cairo_font_matrix exch def
      cairo_store_point /cairo_font where { pop cairo_selectfont } if } bind def
/g { setgray } bind def
/rg { setrgbcolor } bind def
/d1 { setcachedevice } bind def
%%EndProlog
%%BeginSetup
%%EndSetup
%%Page: 1 1
%%BeginPageSetup
%%PageBoundingBox: 0 747 227 842
%%EndPageSetup
q 0 747 227 95 rectclip q
0 g
0.566929 w
0 J
1 j
[] 0.0 d
4 M q -1 0 0 -1 0 841.889771 cm
-61.75 51.805 m -9.117 51.805 l -4.285 51.805 -0.395 55.695 -0.395 60.527
 c -0.395 84.883 l -0.395 89.715 -4.285 93.602 -9.117 93.602 c -61.75 93.602
 l -66.582 93.602 -70.469 89.715 -70.469 84.883 c -70.469 60.527 l -70.469
 55.695 -66.582 51.805 -61.75 51.805 c h
-61.75 51.805 m S Q
q 1 0 0 -1 0 841.889771 cm
23.133 20.934 m 23.133 23.375 21.152 25.359 18.707 25.359 c 16.266 25.359
 14.285 23.375 14.285 20.934 c 14.285 18.488 16.266 16.508 18.707 16.508
 c 21.152 16.508 23.133 18.488 23.133 20.934 c h
23.133 20.934 m S Q
q 1 0 0 -1 0 841.889771 cm
56.301 20.934 m 56.301 23.375 54.316 25.359 51.875 25.359 c 49.43 25.359
 47.449 23.375 47.449 20.934 c 47.449 18.488 49.43 16.508 51.875 16.508 
c 54.316 16.508 56.301 18.488 56.301 20.934 c h
56.301 20.934 m S Q
q 1 0 0 -1 0 841.889771 cm
23.133 72.703 m 23.133 75.148 21.152 77.129 18.707 77.129 c 16.266 77.129
 14.285 75.148 14.285 72.703 c 14.285 70.262 16.266 68.281 18.707 68.281
 c 21.152 68.281 23.133 70.262 23.133 72.703 c h
23.133 72.703 m S Q
q 1 0 0 -1 0 841.889771 cm
56.301 72.703 m 56.301 75.148 54.316 77.129 51.875 77.129 c 49.43 77.129
 47.449 75.148 47.449 72.703 c 47.449 70.262 49.43 68.281 51.875 68.281 
c 54.316 68.281 56.301 70.262 56.301 72.703 c h
56.301 72.703 m S Q
1 g
83.012 820.956 m 83.012 819.882 82.137 819.007 81.062 819.007 c 79.984 
819.007 79.113 819.882 79.113 820.956 c 79.113 822.034 79.984 822.905 81.062
 822.905 c 82.137 822.905 83.012 822.034 83.012 820.956 c h
83.012 820.956 m f
0 g
0.353329 w
q 1 0 0 -1 0 841.889771 cm
83.012 20.934 m 83.012 22.008 82.137 22.883 81.062 22.883 c 79.984 22.883
 79.113 22.008 79.113 20.934 c 79.113 19.855 79.984 18.984 81.062 18.984
 c 82.137 18.984 83.012 19.855 83.012 20.934 c h
83.012 20.934 m S Q
1 g
170.305 820.956 m 170.305 817.702 167.664 815.062 164.41 815.062 c 161.156
 815.062 158.516 817.702 158.516 820.956 c 158.516 824.214 161.156 826.851
 164.41 826.851 c 167.664 826.851 170.305 824.214 170.305 820.956 c h
170.305 820.956 m f
0 g
0.566929 w
q 1 0 0 -1 0 841.889771 cm
170.305 20.934 m 170.305 24.188 167.664 26.828 164.41 26.828 c 161.156 
26.828 158.516 24.188 158.516 20.934 c 158.516 17.676 161.156 15.039 164.41
 15.039 c 167.664 15.039 170.305 17.676 170.305 20.934 c h
170.305 20.934 m S Q
q 1 0 0 -1 0 841.889771 cm
8.531 0 m 217.828 0 l 222.555 0 226.359 3.805 226.359 8.531 c 226.359 33.336
 l 226.359 38.062 222.555 41.867 217.828 41.867 c 8.531 41.867 l 3.805 41.867
 0 38.062 0 33.336 c 0 8.531 l 0 3.805 3.805 0 8.531 0 c h
8.531 0 m S Q
Q Q
showpage
%%Trailer
end restore
%%EOF
