;G-gode for Smoothieboard/sentierBattu
G17
G21
G90
T1M06
F480.0000
S255
M08
G00Z5.0000
M03 F255
G04 S5
G00Z5.0000
G00X84.1254Y135.7318Z5.0000
G01Z-6.3624 F1500.0000
F480.0000
G01X85.5393Y136.0852Z-6.3624
G01X82.7115Y146.6893Z-6.3624
G01X77.4095Y154.8190Z-6.3624
G01X69.6332Y159.0607Z-6.3624
G01X54.4341Y163.6558Z-6.3624
G01X46.6578Y167.1904Z-6.3624
G01X49.8390Y158.0003Z-6.3624
G01X56.5549Y148.1032Z-6.3624
G01X63.6243Y142.4477Z-6.3624
G01X71.0471Y138.9130Z-6.3624
G01X84.1254Y135.7318Z-6.3624
G01X84.1254Y135.7318Z-12.0179
G01X85.5393Y136.0852Z-12.0179
G01X82.7115Y146.6893Z-12.0179
G01X77.4095Y154.8190Z-12.0179
G01X69.6332Y159.0607Z-12.0179
G01X54.4341Y163.6558Z-12.0179
G01X46.6578Y167.1904Z-12.0179
G01X49.8390Y158.0003Z-12.0179
G01X56.5549Y148.1032Z-12.0179
G01X63.6243Y142.4477Z-12.0179
G01X71.0471Y138.9130Z-12.0179
G01X84.1254Y135.7318Z-12.0179
G00Z5.0000
G00X114.1702Y9.5436Z5.0000
G01Z-6.3624 F1500.0000
F480.0000
G01X124.0673Y12.3714Z-6.3624
G01X132.1971Y19.0873Z-6.3624
G01X138.2060Y27.9240Z-6.3624
G01X144.5685Y42.0627Z-6.3624
G01X158.3537Y83.4185Z-6.3624
G01X159.4141Y93.3156Z-6.3624
G01X156.9399Y104.6266Z-6.3624
G01X150.2240Y115.5841Z-6.3624
G01X142.8011Y122.3000Z-6.3624
G01X135.7318Y126.1881Z-6.3624
G01X127.9555Y127.6020Z-6.3624
G01X115.9376Y127.9555Z-6.3624
G01X94.7295Y124.7743Z-6.3624
G01X92.2552Y124.4208Z-6.3624
G01X90.8413Y126.8951Z-6.3624
G01X95.0829Y135.0248Z-6.3624
G01X100.0315Y140.6803Z-6.3624
G01X94.3760Y142.0942Z-6.3624
G01X92.6087Y141.0338Z-6.3624
G01X92.2552Y135.0248Z-6.3624
G01X89.7809Y129.7228Z-6.3624
G01X87.3066Y123.7139Z-6.3624
G01X82.7115Y123.3604Z-6.3624
G01X73.8748Y126.5416Z-6.3624
G01X63.6243Y128.3089Z-6.3624
G01X53.0202Y128.6624Z-6.3624
G01X34.2864Y125.4812Z-6.3624
G01X28.2775Y121.9465Z-6.3624
G01X24.7428Y116.6445Z-6.3624
G01X22.6220Y110.2821Z-6.3624
G01X21.5616Y102.1523Z-6.3624
G01X21.2081Y95.0829Z-6.3624
G01X24.3893Y69.2798Z-6.3624
G01X29.6913Y53.7272Z-6.3624
G01X40.2954Y33.9329Z-6.3624
G01X50.8994Y19.0873Z-6.3624
G01X56.9084Y13.7853Z-6.3624
G01X63.2708Y12.0179Z-6.3624
G01X69.2798Y11.6644Z-6.3624
G01X90.4878Y14.1387Z-6.3624
G01X107.1008Y10.2506Z-6.3624
G01X112.0494Y9.5436Z-6.3624
G01X114.1702Y9.5436Z-6.3624
G01X114.1702Y9.5436Z-12.0179
G01X124.0673Y12.3714Z-12.0179
G01X132.1971Y19.0873Z-12.0179
G01X138.2060Y27.9240Z-12.0179
G01X144.5685Y42.0627Z-12.0179
G01X158.3537Y83.4185Z-12.0179
G01X159.4141Y93.3156Z-12.0179
G01X156.9399Y104.6266Z-12.0179
G01X150.2240Y115.5841Z-12.0179
G01X142.8011Y122.3000Z-12.0179
G01X135.7318Y126.1881Z-12.0179
G01X127.9555Y127.6020Z-12.0179
G01X115.9376Y127.9555Z-12.0179
G01X94.7295Y124.7743Z-12.0179
G01X92.2552Y124.4208Z-12.0179
G01X90.8413Y126.8951Z-12.0179
G01X95.0829Y135.0248Z-12.0179
G01X100.0315Y140.6803Z-12.0179
G01X94.3760Y142.0942Z-12.0179
G01X92.6087Y141.0338Z-12.0179
G01X92.2552Y135.0248Z-12.0179
G01X89.7809Y129.7228Z-12.0179
G01X87.3066Y123.7139Z-12.0179
G01X82.7115Y123.3604Z-12.0179
G01X73.8748Y126.5416Z-12.0179
G01X63.6243Y128.3089Z-12.0179
G01X53.0202Y128.6624Z-12.0179
G01X34.2864Y125.4812Z-12.0179
G01X28.2775Y121.9465Z-12.0179
G01X24.7428Y116.6445Z-12.0179
G01X22.6220Y110.2821Z-12.0179
G01X21.5616Y102.1523Z-12.0179
G01X21.2081Y95.0829Z-12.0179
G01X24.3893Y69.2798Z-12.0179
G01X29.6913Y53.7272Z-12.0179
G01X40.2954Y33.9329Z-12.0179
G01X50.8994Y19.0873Z-12.0179
G01X56.9084Y13.7853Z-12.0179
G01X63.2708Y12.0179Z-12.0179
G01X69.2798Y11.6644Z-12.0179
G01X90.4878Y14.1387Z-12.0179
G01X107.1008Y10.2506Z-12.0179
G01X112.0494Y9.5436Z-12.0179
G01X114.1702Y9.5436Z-12.0179
G00Z5.0000
M05
M09
M30
